<svg width="638" height="224" viewBox="0 0 638 224" fill="none" xmlns="http://www.w3.org/2000/svg">
<path d="M222.351 222.24H1.6709V1.55981H222.351V222.24ZM3.1909 220.78H220.881V3.02982H3.1909V220.78Z" fill="#003DA6" stroke="#003DA6" stroke-width="1.71" stroke-miterlimit="10"/>
<path d="M149.891 189.68L149.771 190.02L149.431 189.9" stroke="#003DA6" stroke-width="0.57" stroke-miterlimit="10"/>
<path d="M148.751 189.66L34.8105 149.7" stroke="#003DA6" stroke-width="0.57" stroke-miterlimit="10" stroke-dasharray="0.72 0.72"/>
<path d="M34.4709 149.58L34.1309 149.46L34.2509 149.12" stroke="#003DA6" stroke-width="0.57" stroke-miterlimit="10"/>
<path d="M34.4902 148.44L74.4502 34.5" stroke="#003DA6" stroke-width="0.57" stroke-miterlimit="10" stroke-dasharray="0.72 0.72"/>
<path d="M74.5703 34.1598L74.6903 33.8198L75.0303 33.9398" stroke="#003DA6" stroke-width="0.57" stroke-miterlimit="10"/>
<path d="M75.71 34.1799L189.65 74.1399" stroke="#003DA6" stroke-width="0.57" stroke-miterlimit="10" stroke-dasharray="0.72 0.72"/>
<path d="M189.99 74.26L190.33 74.38L190.21 74.72" stroke="#003DA6" stroke-width="0.57" stroke-miterlimit="10"/>
<path d="M189.971 75.3999L150.011 189.34" stroke="#003DA6" stroke-width="0.57" stroke-miterlimit="10" stroke-dasharray="0.72 0.72"/>
<path d="M151.776 34.3332L34.415 72.6248L72.7066 189.986L190.068 151.694L151.776 34.3332Z" stroke="#003DA6" stroke-miterlimit="10"/>
<path d="M112.37 127.36C120.886 127.36 127.79 120.456 127.79 111.94C127.79 103.424 120.886 96.52 112.37 96.52C103.854 96.52 96.9502 103.424 96.9502 111.94C96.9502 120.456 103.854 127.36 112.37 127.36Z" stroke="#003DA6" stroke-width="0.57" stroke-miterlimit="10"/>
<path d="M167.61 3.52293L3.39941 57.1001L56.6695 220.37L220.88 166.792L167.61 3.52293Z" stroke="#003DA6" stroke-width="1.14" stroke-miterlimit="10"/>
<path d="M56.3804 220.92L56.2504 220.51L2.86035 56.83L3.27036 56.7L167.89 3L168.02 3.41L221.41 167.09L221 167.22L56.3804 220.92Z" stroke="#003DA6" stroke-width="1.14" stroke-miterlimit="10"/>
<path d="M42.2302 177.83L3.88015 164.3L21.3802 114.22L21.0902 113.33L3.25016 164.38L3.16016 164.64L42.4502 178.51L42.2302 177.83Z" fill="#003DA6" stroke="#003DA6" stroke-width="2" stroke-miterlimit="10"/>
<path d="M46.6009 42.5699L60.1709 3.88992L110.751 21.6399L111.641 21.3499L60.0909 3.25992L59.8309 3.16992L45.9209 42.7899L46.6009 42.5699Z" fill="#003DA6" stroke="#003DA6" stroke-width="2" stroke-miterlimit="10"/>
<path d="M177.8 181.56L164.29 220.59L112.68 202.64L111.79 202.92L164.37 221.22L164.64 221.31L178.47 181.34L177.8 181.56Z" fill="#003DA6" stroke="#003DA6" stroke-width="2" stroke-miterlimit="10"/>
<path d="M182.2 45.97L182.42 46.64L220.58 60.18L203.01 110.26L203.29 111.15L221.21 60.1L221.3 59.84L182.2 45.97Z" fill="#003DA6" stroke="#003DA6" stroke-width="2" stroke-miterlimit="10"/>
<path d="M112.37 3.29004V222.83" stroke="#003DA6" stroke-width="0.29" stroke-miterlimit="10"/>
<path d="M222.57 112.04H1" stroke="#003DA6" stroke-width="0.29" stroke-miterlimit="10"/>
<path d="M222.57 92.79L1 131.49" stroke="#003DA6" stroke-width="0.29" stroke-miterlimit="10"/>
<path d="M222.57 72.3L1 152.2" stroke="#003DA6" stroke-width="0.29" stroke-miterlimit="10"/>
<path d="M222.67 48.95L1 175.74" stroke="#003DA6" stroke-width="0.29" stroke-miterlimit="10"/>
<path d="M222.48 20.5L1 204.62" stroke="#003DA6" stroke-width="0.29" stroke-miterlimit="10"/>
<path d="M204.41 3.37012L18.5601 222.79" stroke="#003DA6" stroke-width="0.29" stroke-miterlimit="10"/>
<path d="M175.75 3.29004L47.8198 222.79" stroke="#003DA6" stroke-width="0.29" stroke-miterlimit="10"/>
<path d="M152.32 3.29004L71.6802 222.79" stroke="#003DA6" stroke-width="0.29" stroke-miterlimit="10"/>
<path d="M131.72 3.29004L92.6499 222.83" stroke="#003DA6" stroke-width="0.29" stroke-miterlimit="10"/>
<path d="M93.0098 3.29004L132.08 222.79" stroke="#003DA6" stroke-width="0.29" stroke-miterlimit="10"/>
<path d="M72.4102 3.29004L153.06 222.79" stroke="#003DA6" stroke-width="0.29" stroke-miterlimit="10"/>
<path d="M48.9902 3.29004L176.91 222.79" stroke="#003DA6" stroke-width="0.29" stroke-miterlimit="10"/>
<path d="M20.25 3.29004L206.17 222.79" stroke="#003DA6" stroke-width="0.29" stroke-miterlimit="10"/>
<path d="M2.08008 20.28L223.76 204.73" stroke="#003DA6" stroke-width="0.29" stroke-miterlimit="10"/>
<path d="M1 48.3401L222.57 175.07" stroke="#003DA6" stroke-width="0.29" stroke-miterlimit="10"/>
<path d="M1 71.8801L222.57 151.78" stroke="#003DA6" stroke-width="0.29" stroke-miterlimit="10"/>
<path d="M1 92.5901L222.57 131.29" stroke="#003DA6" stroke-width="0.29" stroke-miterlimit="10"/>
<path d="M249.781 5.80981H253.781C256.614 5.80981 258.657 6.62648 259.911 8.25982C261.164 9.89315 261.791 12.2565 261.791 15.3498V37.7798C261.791 40.8798 261.164 43.2598 259.911 44.9198C258.657 46.5798 256.614 47.4065 253.781 47.3998H249.781V57.9198H246.571V47.3998H242.571C239.731 47.3998 237.687 46.5731 236.441 44.9198C235.194 43.2665 234.564 40.8865 234.551 37.7798V15.3498C234.551 12.2498 235.181 9.88648 236.441 8.25982C237.701 6.63315 239.744 5.81648 242.571 5.80981H246.571V1.80981H249.781V5.80981ZM237.781 37.8098C237.681 39.5004 238.07 41.184 238.901 42.6598C239.311 43.2452 239.868 43.7124 240.515 44.0143C241.163 44.3163 241.879 44.4423 242.591 44.3798H246.591V8.85981H242.591C241.883 8.79696 241.171 8.91869 240.524 9.21314C239.877 9.50759 239.318 9.96468 238.901 10.5398C238.066 11.9996 237.677 13.6716 237.781 15.3498V37.8098ZM249.781 8.88982V44.3498H253.781C254.491 44.4115 255.205 44.2851 255.851 43.9831C256.497 43.6812 257.052 43.2144 257.461 42.6298C258.291 41.154 258.68 39.4704 258.581 37.7798V15.3498C258.685 13.6716 258.295 11.9996 257.461 10.5398C257.044 9.96622 256.487 9.51008 255.842 9.21571C255.197 8.92134 254.487 8.79873 253.781 8.85981L249.781 8.88982Z" fill="#003DA6"/>
<path d="M277.9 9.74C277.9 6.85 278.53 4.68 279.79 3.21C281.05 1.74 283.09 1 285.92 1C288.75 1 290.79 1.74 292.05 3.21C293.31 4.68 293.93 6.85 293.93 9.74V49.92C293.93 52.8067 293.304 54.9967 292.05 56.49C290.797 57.9833 288.754 58.7333 285.92 58.74C283.09 58.74 281.04 57.99 279.79 56.49C278.54 54.99 277.9 52.81 277.9 49.92V9.74ZM281.11 49.92C281.006 51.4158 281.385 52.9056 282.19 54.17C283.182 55.1192 284.502 55.6491 285.875 55.6491C287.248 55.6491 288.568 55.1192 289.56 54.17C290.398 52.9163 290.808 51.4257 290.73 49.92V9.74C290.833 8.23742 290.436 6.74303 289.6 5.49C288.596 4.56517 287.281 4.0518 285.915 4.0518C284.55 4.0518 283.235 4.56517 282.23 5.49C281.398 6.74426 281.005 8.23855 281.11 9.74V49.92Z" fill="#003DA6"/>
<path d="M323.341 31.3698H313.721V57.9198H310.521V1.7998H313.721V28.3298H323.341V1.7998H326.541V57.9198H323.341V31.3698Z" fill="#003DA6"/>
<path d="M359.481 57.92H343.481V64.41H340.681V54.77C341.072 54.7348 341.447 54.5932 341.764 54.3605C342.082 54.1279 342.329 53.8131 342.481 53.45C343.059 52.3802 343.477 51.2313 343.721 50.04C344.064 48.5094 344.317 46.9601 344.481 45.4C344.671 43.69 344.791 42.03 344.841 40.4L346.281 1.77002H359.911V54.77H362.311V64.39H359.511L359.481 57.92ZM348.021 40.43C347.961 41.76 347.871 43.14 347.741 44.56C347.611 45.98 347.421 47.32 347.181 48.56C346.964 49.7666 346.629 50.9489 346.181 52.09C345.817 53.0623 345.274 53.9578 344.581 54.73H356.681V4.92002H349.311L348.021 40.43Z" fill="#003DA6"/>
<path d="M399.3 1.7998H407.3C410.13 1.7998 412.18 2.61981 413.43 4.24981C414.68 5.87981 415.32 8.2498 415.32 11.3398V28.0098C415.32 31.1098 414.69 33.4798 413.43 35.1398C412.17 36.7998 410.13 37.6198 407.3 37.6198H402.5V57.9198H399.29L399.3 1.7998ZM402.51 4.7998V34.5798H407.31C408.022 34.6423 408.738 34.5163 409.386 34.2143C410.033 33.9124 410.59 33.4452 411 32.8598C411.829 31.3834 412.218 29.7003 412.12 28.0098V11.3398C412.223 9.66165 411.833 7.99001 411 6.5298C410.583 5.95467 410.023 5.49758 409.377 5.20313C408.73 4.90868 408.018 4.78695 407.31 4.8498L402.51 4.7998Z" fill="#003DA6"/>
<path d="M443.371 47.4H433.041L431.591 57.92H428.311L436.641 1.73999H439.851L448.191 57.92H444.891L443.371 47.4ZM433.521 44.4H442.971L440.651 28.14L438.241 9.30999L435.841 28.14L433.521 44.4Z" fill="#003DA6"/>
<path d="M473.501 26.65C474.333 25.1894 474.722 23.5181 474.621 21.84V9.74C474.727 8.23855 474.333 6.74426 473.501 5.49C472.496 4.56517 471.181 4.0518 469.816 4.0518C468.451 4.0518 467.135 4.56517 466.131 5.49C465.299 6.74426 464.905 8.23855 465.011 9.74V17.83H461.801V9.74C461.801 6.85 462.431 4.68 463.691 3.21C464.951 1.74 466.981 1 469.821 1C472.661 1 474.691 1.74 475.951 3.21C477.211 4.68 477.831 6.85 477.831 9.74V21.84C477.831 26 476.491 28.68 473.831 29.84C476.497 31.02 477.831 33.6867 477.831 37.84V49.92C477.831 52.8067 477.204 54.9967 475.951 56.49C474.697 57.9833 472.654 58.7333 469.821 58.74C466.981 58.74 464.937 57.99 463.691 56.49C462.444 54.99 461.814 52.8 461.801 49.92V41.92H465.011V49.92C464.909 51.4336 465.302 52.9391 466.131 54.21C467.123 55.1592 468.443 55.6891 469.816 55.6891C471.189 55.6891 472.509 55.1592 473.501 54.21C474.329 52.9391 474.722 51.4336 474.621 49.92V37.92C474.724 36.245 474.334 34.5764 473.501 33.12C473.088 32.5424 472.531 32.0826 471.885 31.7862C471.24 31.4898 470.528 31.367 469.821 31.43H465.821V28.43H469.821C470.536 28.4822 471.253 28.3452 471.899 28.0327C472.545 27.7203 473.097 27.2434 473.501 26.65V26.65Z" fill="#003DA6"/>
<path d="M502.431 1.7998C504.991 1.7998 506.841 2.4898 507.961 3.7998C509.192 5.50634 509.787 7.59044 509.641 9.6898V23.3598C509.641 26.6198 508.574 28.7831 506.441 29.8498C509.107 30.9165 510.441 33.3198 510.441 37.0598V49.0598C510.441 51.9531 509.814 54.1431 508.561 55.6298C507.307 57.1165 505.264 57.8798 502.431 57.9198H494.431V1.7998H502.431ZM497.621 4.7998V28.3298H502.431C505.097 28.3298 506.431 26.6631 506.431 23.3298V9.7398C506.431 6.4798 505.097 4.8498 502.431 4.8498L497.621 4.7998ZM497.621 31.3198V54.8498H502.431C503.119 54.9158 503.814 54.8158 504.456 54.5583C505.098 54.3009 505.669 53.8933 506.121 53.3698C506.944 52.0966 507.336 50.5928 507.241 49.0798V37.0798C507.342 35.5819 506.949 34.0922 506.121 32.8398C505.663 32.3243 505.091 31.9243 504.45 31.6723C503.808 31.4203 503.116 31.3235 502.431 31.3898L497.621 31.3198Z" fill="#003DA6"/>
<path d="M530.19 33.8598L529.95 44.3498L539.81 4.2898L540.05 1.7998H543.05V57.9198H539.85V25.8398L540.09 15.3498L530.19 55.4098L529.91 57.9198H526.91V1.7998H530.19V33.8598Z" fill="#003DA6"/>
<path d="M557.48 1.7998H575.11V4.9198H567.891V57.9198H564.69V4.9198H557.48V1.7998Z" fill="#003DA6"/>
<path d="M592.81 33.8598L592.57 44.3498L602.43 4.2898L602.67 1.7998H605.67V57.9198H602.46V25.8398L602.7 15.3498L592.84 55.4098L592.57 57.9198H589.57V1.7998H592.77L592.81 33.8598Z" fill="#003DA6"/>
<path d="M630.191 1.7998H637.811V57.9198H634.601V34.4998H630.921L623.921 57.8998H620.641L627.641 34.2598C624.007 33.3665 622.191 30.2531 622.191 24.9198V11.3398C622.191 8.2398 622.817 5.87647 624.071 4.24981C625.324 2.62314 627.364 1.80647 630.191 1.7998ZM625.391 11.3398V24.9198C625.291 26.6104 625.68 28.294 626.511 29.7698C626.923 30.3478 627.48 30.8073 628.126 31.1022C628.772 31.397 629.484 31.5169 630.191 31.4498H634.601V4.8498H630.191C629.484 4.78674 628.774 4.90844 628.128 5.20298C627.483 5.49751 626.926 5.95475 626.511 6.5298C625.691 7.99423 625.316 9.66561 625.431 11.3398H625.391Z" fill="#003DA6"/>
<path d="M249.19 114.81C249.33 116.595 249.665 118.359 250.19 120.07C250.356 120.639 250.711 121.133 251.197 121.472C251.683 121.81 252.27 121.972 252.86 121.93V124.92C251.821 124.959 250.788 124.732 249.86 124.26C249.031 123.806 248.339 123.136 247.86 122.32C247.288 121.337 246.882 120.266 246.66 119.15C246.356 117.734 246.136 116.302 246 114.86L245.19 105.52C245.097 103.906 244.679 102.328 243.96 100.88C243.601 100.317 243.091 99.8664 242.488 99.5783C241.885 99.2903 241.214 99.1765 240.55 99.25H238.23V124.92H235.19V70.7H238.29V96.31H240.61C241.233 96.3715 241.861 96.2466 242.413 95.951C242.965 95.6555 243.416 95.2027 243.71 94.65C244.369 93.1668 244.762 91.5793 244.87 89.96L245.8 80.76C245.929 79.3147 246.146 77.8786 246.45 76.46C246.683 75.3474 247.088 74.2778 247.65 73.29C248.133 72.4774 248.824 71.8079 249.65 71.35C250.58 70.8853 251.612 70.6618 252.65 70.7V73.64C252.061 73.5957 251.474 73.7553 250.988 74.0921C250.502 74.4288 250.146 74.9224 249.98 75.49C249.443 77.204 249.091 78.9708 248.93 80.76L248 89.96C247.833 91.662 247.425 93.3319 246.79 94.92C246.305 96.1673 245.385 97.1973 244.2 97.82C245.497 98.347 246.537 99.3585 247.1 100.64C247.753 102.208 248.157 103.868 248.3 105.56L249.19 114.81Z" stroke="#003DA6" stroke-width="1.02" stroke-miterlimit="10"/>
<path d="M256.65 70.7H259.65L264.19 93.92L266.51 108.47L268.41 93.92L272.41 70.71H275.41L267.9 114.04C267.65 115.74 267.35 117.27 267.02 118.61C266.739 119.799 266.295 120.943 265.7 122.01C265.205 122.893 264.484 123.628 263.61 124.14C262.597 124.67 261.463 124.925 260.32 124.88V121.92C261.029 121.954 261.729 121.761 262.32 121.37C262.871 120.967 263.3 120.421 263.56 119.79C263.903 118.991 264.164 118.161 264.34 117.31C264.54 116.31 264.75 115.26 264.95 114.02L265.03 113.33L256.65 70.7Z" stroke="#003DA6" stroke-width="1.02" stroke-miterlimit="10"/>
<path d="M273.73 121.92C274.455 121.969 275.176 121.795 275.799 121.421C276.421 121.048 276.914 120.492 277.21 119.83C277.972 117.987 278.366 116.014 278.37 114.02L279.92 70.6899H293.07V124.92H289.98V73.7099H282.86L281.46 114.03C281.36 117.49 280.73 120.157 279.57 122.03C278.41 123.903 276.464 124.867 273.73 124.92V121.92Z" stroke="#003DA6" stroke-width="1.02" stroke-miterlimit="10"/>
<path d="M298.761 70.7H301.851V90.27H306.491C309.231 90.27 311.204 91.07 312.411 92.67C313.631 94.27 314.231 96.57 314.231 99.56V115.66C314.231 118.66 313.631 120.93 312.411 122.51C311.191 124.09 309.191 124.92 306.491 124.92H298.761V70.7ZM306.491 121.92C307.174 121.976 307.86 121.856 308.484 121.57C309.107 121.285 309.647 120.844 310.051 120.29C310.862 118.884 311.241 117.27 311.141 115.65V99.55C311.236 97.9175 310.858 96.2922 310.051 94.8699C309.656 94.3045 309.119 93.8533 308.494 93.5619C307.869 93.2704 307.178 93.149 306.491 93.21H301.851V121.92H306.491Z" stroke="#003DA6" stroke-width="1.02" stroke-miterlimit="10"/>
<path d="M313.41 70.7H330.41V73.7H323.41V124.92H320.32V73.71H313.32L313.41 70.7Z" stroke="#003DA6" stroke-width="1.02" stroke-miterlimit="10"/>
<path d="M333.7 70.7H336.7L341.28 93.92L343.6 108.47L345.46 93.92L349.46 70.71H352.46L344.95 114.04C344.7 115.74 344.4 117.27 344.07 118.61C343.789 119.799 343.345 120.943 342.75 122.01C342.255 122.893 341.534 123.628 340.66 124.14C339.647 124.67 338.513 124.925 337.37 124.88V121.92C338.078 121.954 338.779 121.761 339.37 121.37C339.921 120.967 340.35 120.421 340.61 119.79C340.952 118.991 341.214 118.161 341.39 117.31C341.59 116.31 341.8 115.26 342 114.02L342.08 113.33L333.7 70.7Z" stroke="#003DA6" stroke-width="1.02" stroke-miterlimit="10"/>
<path d="M356.111 70.7H363.851C366.581 70.7 368.551 71.48 369.761 73.06C370.971 74.64 371.581 76.91 371.581 79.9V96C371.581 99 370.981 101.29 369.761 102.89C368.541 104.49 366.581 105.29 363.851 105.29H359.191V124.92H356.101L356.111 70.7ZM359.201 73.64V102.35H363.851C364.537 102.409 365.227 102.286 365.85 101.992C366.474 101.699 367.008 101.246 367.401 100.68C368.208 99.2577 368.586 97.6324 368.491 96V79.92C368.589 78.2999 368.21 76.6866 367.401 75.28C366.996 74.7293 366.458 74.2913 365.837 74.0077C365.215 73.7241 364.531 73.6044 363.851 73.66L359.201 73.64Z" stroke="#003DA6" stroke-width="1.02" stroke-miterlimit="10"/>
<path d="M376.301 70.6999H379.401V90.2699H384.041C386.781 90.2699 388.754 91.0699 389.961 92.6699C391.167 94.2699 391.774 96.5666 391.781 99.5599V115.66C391.781 118.647 391.174 120.93 389.961 122.51C388.747 124.09 386.774 124.893 384.041 124.92H376.301V70.6999ZM384.041 121.92C384.724 121.976 385.41 121.856 386.034 121.57C386.657 121.285 387.197 120.844 387.601 120.29C388.407 118.882 388.786 117.27 388.691 115.65V99.5499C388.781 97.9179 388.403 96.2941 387.601 94.8699C387.206 94.3045 386.669 93.8533 386.044 93.5619C385.419 93.2704 384.728 93.149 384.041 93.2099H379.401V121.92H384.041ZM400.691 70.6899H397.601V124.92H400.691V70.6899Z" stroke="#003DA6" stroke-width="1.02" stroke-miterlimit="10"/>
<path d="M425.27 101.65L425.03 111.79L434.55 73.09L434.79 70.7H437.65V124.92H434.55V93.92L434.79 83.78L425.27 122.48L425.03 124.88H422.19V70.7H425.29L425.27 101.65Z" stroke="#003DA6" stroke-width="1.02" stroke-miterlimit="10"/>
<path d="M454.04 101.65L453.81 111.79L463.33 73.09L463.56 70.7H466.43V124.92H463.33V93.92L463.56 83.78L454.04 122.48L453.81 124.88H450.95V70.7H454.04V101.65Z" stroke="#003DA6" stroke-width="1.02" stroke-miterlimit="10"/>
<path d="M488.19 117.13C488.19 119.91 487.58 122.03 486.37 123.47C485.16 124.91 483.18 125.64 480.45 125.64C477.72 125.64 475.74 124.92 474.53 123.47C473.32 122.02 472.71 119.91 472.71 117.13V78.3599C472.71 75.5733 473.317 73.4699 474.53 72.0499C475.74 70.6299 477.72 69.9199 480.45 69.9199C483.18 69.9199 485.16 70.6299 486.37 72.0499C487.58 73.4699 488.19 75.5699 488.19 78.3599V86.1699H485.09V78.3599C485.192 76.9115 484.812 75.47 484.01 74.2599C483.042 73.3609 481.771 72.8613 480.45 72.8613C479.129 72.8613 477.857 73.3609 476.89 74.2599C476.087 75.47 475.708 76.9115 475.81 78.3599V117.13C475.716 118.59 476.095 120.042 476.89 121.27C477.848 122.187 479.124 122.699 480.45 122.699C481.776 122.699 483.052 122.187 484.01 121.27C484.805 120.042 485.184 118.59 485.09 117.13V109.39H488.19V117.13Z" stroke="#003DA6" stroke-width="1.02" stroke-miterlimit="10"/>
<path d="M509.191 114.81C509.335 116.594 509.67 118.357 510.191 120.07C510.356 120.638 510.711 121.133 511.197 121.472C511.683 121.81 512.27 121.972 512.861 121.93V124.92C511.821 124.959 510.788 124.732 509.861 124.26C509.034 123.802 508.343 123.133 507.861 122.32C507.296 121.334 506.894 120.264 506.671 119.15C506.357 117.736 506.136 116.303 506.011 114.86L505.191 105.52C505.094 103.906 504.672 102.327 503.951 100.88C503.593 100.317 503.085 99.8661 502.484 99.5779C501.883 99.2897 501.213 99.1761 500.551 99.25H498.191V124.92H495.101V70.7H498.191V96.31H500.521C501.142 96.3694 501.767 96.2435 502.317 95.9481C502.867 95.6527 503.317 95.201 503.611 94.65C504.279 93.17 504.672 91.5808 504.771 89.96L505.701 80.76C505.832 79.3144 506.052 77.8784 506.361 76.46C506.584 75.3448 506.99 74.2738 507.561 73.29C508.04 72.4744 508.731 71.8039 509.561 71.35C510.491 70.8865 511.522 70.663 512.561 70.7V73.64C511.971 73.5976 511.385 73.7579 510.9 74.0944C510.414 74.4309 510.058 74.9233 509.891 75.49C509.366 77.2048 509.03 78.972 508.891 80.76L507.961 89.96C507.818 91.6441 507.441 93.3001 506.841 94.88C506.351 96.128 505.428 97.1577 504.241 97.78C505.538 98.3093 506.581 99.3197 507.151 100.6C507.804 102.167 508.205 103.828 508.341 105.52L509.191 114.81Z" stroke="#003DA6" stroke-width="1.02" stroke-miterlimit="10"/>
<path d="M515.771 70.7H518.771L523.36 93.92L525.68 108.47L527.531 93.92L531.531 70.71H534.531L527.021 114.04C526.761 115.74 526.47 117.27 526.13 118.61C525.854 119.8 525.409 120.945 524.81 122.01C524.319 122.892 523.601 123.628 522.73 124.14C521.717 124.669 520.583 124.924 519.44 124.88V121.92C520.148 121.95 520.848 121.758 521.44 121.37C521.989 120.965 522.417 120.419 522.68 119.79C523.019 118.991 523.277 118.16 523.451 117.31C523.661 116.31 523.86 115.26 524.07 114.02L524.151 113.33L515.771 70.7Z" stroke="#003DA6" stroke-width="1.02" stroke-miterlimit="10"/>
<path d="M553.541 117.13C553.541 119.91 552.931 122.03 551.721 123.47C550.511 124.91 548.531 125.64 545.801 125.64C543.071 125.64 541.091 124.92 539.881 123.47C538.671 122.02 538.061 119.91 538.061 117.13V78.3599C538.061 75.5699 538.661 73.4699 539.881 72.0499C541.101 70.6299 543.061 69.9199 545.801 69.9199C548.541 69.9199 550.511 70.6299 551.721 72.0499C552.931 73.4699 553.541 75.5699 553.541 78.3599V86.1699H550.441V78.3599C550.543 76.9115 550.163 75.47 549.361 74.2599C548.393 73.3609 547.121 72.8613 545.801 72.8613C544.48 72.8613 543.208 73.3609 542.241 74.2599C541.43 75.4665 541.046 76.9099 541.151 78.3599V117.13C541.054 118.592 541.437 120.045 542.241 121.27C543.199 122.187 544.474 122.699 545.801 122.699C547.127 122.699 548.402 122.187 549.361 121.27C550.156 120.042 550.535 118.59 550.441 117.13V109.39H553.541V117.13Z" stroke="#003DA6" stroke-width="1.02" stroke-miterlimit="10"/>
<path d="M574.831 117.13C574.831 119.91 574.221 122.03 573.011 123.47C571.801 124.91 569.821 125.64 567.091 125.64C564.361 125.64 562.381 124.92 561.171 123.47C559.961 122.02 559.351 119.91 559.351 117.13V78.3599C559.351 75.5733 559.957 73.4699 561.171 72.0499C562.381 70.6299 564.361 69.9199 567.091 69.9199C569.821 69.9199 571.801 70.6299 573.011 72.0499C574.221 73.4699 574.831 75.5699 574.831 78.3599V86.1699H571.731V78.3599C571.833 76.9115 571.453 75.47 570.651 74.2599C569.683 73.3609 568.411 72.8613 567.091 72.8613C565.77 72.8613 564.498 73.3609 563.531 74.2599C562.728 75.47 562.348 76.9115 562.451 78.3599V117.13C562.357 118.59 562.735 120.042 563.531 121.27C564.489 122.187 565.764 122.699 567.091 122.699C568.417 122.699 569.692 122.187 570.651 121.27C571.446 120.042 571.825 118.59 571.731 117.13V109.39H574.831V117.13Z" stroke="#003DA6" stroke-width="1.02" stroke-miterlimit="10"/>
<path d="M578.63 70.7H595.63V73.7H588.63V124.92H585.54V73.71H578.54L578.63 70.7Z" stroke="#003DA6" stroke-width="1.02" stroke-miterlimit="10"/>
<path d="M606.801 70.7C609.281 70.7 611.061 71.35 612.141 72.7C613.328 74.3497 613.905 76.3615 613.771 78.39V91.54C613.771 94.69 612.771 96.78 610.671 97.81C613.251 98.81 614.541 101.17 614.541 104.81V116.41C614.541 119.203 613.934 121.32 612.721 122.76C611.511 124.2 609.531 124.93 606.801 124.93H599.061V70.7H606.801ZM602.191 73.64V96.31H606.831C609.411 96.31 610.701 94.7099 610.701 91.5099V78.36C610.701 75.2133 609.411 73.64 606.831 73.64H602.191ZM602.191 99.25V121.92H606.831C607.496 121.983 608.167 121.885 608.786 121.634C609.406 121.384 609.956 120.988 610.391 120.48C611.189 119.253 611.568 117.8 611.471 116.34V104.74C611.571 103.289 611.192 101.844 610.391 100.63C609.946 100.137 609.393 99.7547 608.775 99.5133C608.157 99.272 607.491 99.1784 606.831 99.24L602.191 99.25Z" stroke="#003DA6" stroke-width="1.02" stroke-miterlimit="10"/>
<path d="M632.8 114.73H622.8L621.43 124.92H618.25L626.3 70.6699H629.4L637.4 124.92H634.22L632.8 114.73ZM623.28 111.79H632.41L630.19 96.0799L627.85 77.9199L625.53 96.1099L623.28 111.79Z" stroke="#003DA6" stroke-width="1.02" stroke-miterlimit="10"/>
<path d="M242.851 139.67H236.601V174.1H234.511V137.64H244.931V174.1H242.851V139.67Z" fill="#003DA6"/>
<path d="M251.65 137.64H256.86C257.605 137.57 258.356 137.677 259.052 137.954C259.747 138.23 260.367 138.668 260.86 139.23C261.76 140.592 262.188 142.211 262.08 143.84V154.67C262.185 156.308 261.757 157.935 260.86 159.31C260.37 159.877 259.751 160.32 259.055 160.6C258.36 160.88 257.607 160.99 256.86 160.92H253.74V174.1H251.65V137.64ZM253.74 139.64V158.92H256.86C257.324 158.96 257.789 158.878 258.21 158.681C258.632 158.485 258.994 158.181 259.26 157.8C259.798 156.841 260.052 155.748 259.99 154.65V143.84C260.053 142.748 259.8 141.661 259.26 140.71C258.988 140.337 258.624 140.041 258.204 139.85C257.783 139.659 257.32 139.58 256.86 139.62L253.74 139.64Z" fill="#003DA6"/>
<path d="M270.3 158.47L270.14 165.3L276.55 139.3L276.71 137.69H278.63V174.15H276.55V153.26L276.71 146.44L270.3 172.44L270.14 174.05H268.19V137.64H270.27L270.3 158.47Z" fill="#003DA6"/>
<path d="M304.421 167.28H302.341L297.751 143.78L298.011 150.61V174.1H295.931V137.64H298.011L301.821 154.41L303.381 164.52L304.941 154.41L308.741 137.64H310.831V174.1H308.741V150.61L309.001 143.78L304.421 167.28Z" fill="#003DA6"/>
<path d="M319.631 158.47L319.471 165.3L325.881 139.3L326.041 137.69H327.971V174.15H325.881V153.26L326.041 146.44L319.631 172.44L319.471 174.05H317.551V137.64H319.631V158.47Z" fill="#003DA6"/>
<path d="M343.02 156.86H336.77V174.1H334.69V137.64H336.77V154.92H343.02V137.64H345.1V174.1H343.02V156.86Z" fill="#003DA6"/>
<path d="M353.911 158.47L353.751 165.3L360.161 139.3L360.311 137.69H362.241V174.15H360.191V153.26L360.341 146.44L353.941 172.44L353.781 174.05H351.851V137.64H353.941L353.911 158.47Z" fill="#003DA6"/>
<path d="M379.27 168.92C379.38 170.446 378.948 171.961 378.05 173.2C376.931 174.145 375.514 174.663 374.05 174.663C372.586 174.663 371.169 174.145 370.05 173.2C369.153 171.961 368.721 170.446 368.83 168.92V142.82C368.717 141.306 369.15 139.802 370.05 138.58C371.175 137.648 372.59 137.138 374.05 137.138C375.511 137.138 376.925 137.648 378.05 138.58C378.951 139.802 379.383 141.306 379.27 142.82V148.09H377.19V142.82C377.258 141.844 377.001 140.874 376.46 140.06C375.806 139.462 374.952 139.13 374.065 139.13C373.179 139.13 372.324 139.462 371.67 140.06C371.129 140.874 370.872 141.844 370.94 142.82V168.92C370.873 169.905 371.129 170.884 371.67 171.71C372.316 172.325 373.173 172.669 374.065 172.669C374.957 172.669 375.815 172.325 376.46 171.71C377.001 170.884 377.257 169.905 377.19 168.92V163.71H379.27V168.92Z" fill="#003DA6"/>
<path d="M383.601 137.64H395.061V139.64H390.371V174.07H388.291V139.67H383.601V137.64Z" fill="#003DA6"/>
<path d="M408.92 139.67H402.4V154.92H407.87V156.92H402.4V172.13H408.92V174.13H400.32V137.64H408.92V139.67Z" fill="#003DA6"/>
<path d="M414.851 137.64H420.061C420.806 137.57 421.557 137.677 422.252 137.954C422.947 138.23 423.567 138.668 424.061 139.23C424.96 140.592 425.388 142.211 425.281 143.84V154.67C425.385 156.308 424.957 157.935 424.061 159.31C423.57 159.877 422.951 160.32 422.256 160.6C421.56 160.88 420.807 160.99 420.061 160.92H416.941V174.1H414.851V137.64ZM416.941 139.64V158.92H420.061C420.524 158.96 420.989 158.878 421.411 158.681C421.832 158.485 422.194 158.181 422.461 157.8C422.999 156.841 423.252 155.748 423.191 154.65V143.84C423.254 142.748 423 141.661 422.461 140.71C422.188 140.337 421.824 140.041 421.404 139.85C420.983 139.659 420.521 139.58 420.061 139.62L416.941 139.64Z" fill="#003DA6"/>
<path d="M441.73 168.92C441.835 170.445 441.403 171.959 440.51 173.2C439.392 174.145 437.975 174.663 436.51 174.663C435.046 174.663 433.629 174.145 432.51 173.2C431.609 171.963 431.174 170.447 431.28 168.92V142.82C431.17 141.305 431.607 139.801 432.51 138.58C433.635 137.648 435.05 137.138 436.51 137.138C437.971 137.138 439.386 137.648 440.51 138.58C441.407 139.804 441.839 141.307 441.73 142.82V148.09H439.65V142.82C439.718 141.844 439.462 140.874 438.92 140.06C438.62 139.729 438.247 139.473 437.83 139.312C437.414 139.15 436.965 139.088 436.52 139.13C436.077 139.087 435.63 139.148 435.215 139.31C434.799 139.471 434.428 139.728 434.13 140.06C433.589 140.874 433.333 141.844 433.4 142.82V168.92C433.333 169.905 433.59 170.884 434.13 171.71C434.419 172.057 434.787 172.329 435.203 172.503C435.619 172.677 436.071 172.748 436.52 172.71C436.971 172.747 437.425 172.676 437.842 172.502C438.26 172.328 438.629 172.056 438.92 171.71C439.461 170.884 439.718 169.905 439.65 168.92V163.71H441.73V168.92Z" fill="#003DA6"/>
<path d="M446.061 137.64H457.521V139.64H452.831V174.07H450.741V139.67H446.061V137.64Z" fill="#003DA6"/>
<path d="M467.991 137.64C468.651 137.576 469.317 137.663 469.938 137.893C470.56 138.123 471.122 138.492 471.581 138.97C472.381 140.076 472.77 141.427 472.681 142.79V151.65C472.681 153.77 471.984 155.177 470.591 155.87C472.331 156.56 473.201 158.13 473.201 160.56V168.37C473.309 169.894 472.874 171.407 471.971 172.64C471.457 173.169 470.831 173.575 470.138 173.828C469.445 174.081 468.704 174.174 467.971 174.1H462.761V137.64H467.991ZM464.861 139.64V154.92H467.991C469.721 154.92 470.591 153.84 470.591 151.69V142.83C470.591 140.72 469.721 139.66 467.991 139.66L464.861 139.64ZM464.861 156.88V172.12H467.991C468.44 172.158 468.892 172.087 469.308 171.913C469.724 171.739 470.092 171.467 470.381 171.12C470.922 170.294 471.178 169.315 471.111 168.33V160.52C471.182 159.544 470.925 158.573 470.381 157.76C470.085 157.425 469.714 157.166 469.299 157.002C468.883 156.839 468.435 156.776 467.991 156.82L464.861 156.88Z" fill="#003DA6"/>
<path d="M488.361 139.67H481.841V154.92H487.311V156.92H481.841V172.13H488.361V174.13H479.761V137.64H488.361V139.67Z" fill="#003DA6"/>
<path d="M514.97 167.33C515.079 168.532 515.317 169.719 515.68 170.87C515.789 171.252 516.027 171.585 516.353 171.813C516.679 172.041 517.074 172.149 517.47 172.12V174.12C516.777 174.141 516.09 173.99 515.47 173.68C514.921 173.371 514.462 172.922 514.14 172.38C513.757 171.715 513.483 170.992 513.33 170.24C513.122 169.287 512.975 168.322 512.89 167.35L512.27 161.1C512.207 160.01 511.921 158.945 511.43 157.97C511.188 157.593 510.845 157.292 510.44 157.099C510.036 156.907 509.586 156.831 509.14 156.88H507.58V174.12H505.49V137.64H507.58V154.92H509.19C509.609 154.962 510.031 154.878 510.402 154.678C510.772 154.479 511.075 154.173 511.27 153.8C511.723 152.807 511.988 151.739 512.05 150.65L512.68 144.45C512.765 143.478 512.912 142.513 513.12 141.56C513.273 140.808 513.547 140.085 513.93 139.42C514.252 138.878 514.711 138.429 515.26 138.12C515.88 137.809 516.567 137.658 517.26 137.68V139.68C516.864 139.651 516.469 139.759 516.143 139.987C515.817 140.215 515.58 140.548 515.47 140.93C515.107 142.081 514.869 143.268 514.76 144.47L514.14 150.67C514.045 151.804 513.789 152.918 513.38 153.98C513.042 154.824 512.405 155.515 511.59 155.92C512.481 156.265 513.2 156.948 513.59 157.82C514.032 158.874 514.305 159.991 514.4 161.13L514.97 167.33Z" fill="#003DA6"/>
<path d="M521.19 137.64H523.19L526.27 153.26L527.83 163.06L529.08 153.26L531.79 137.64H533.79L528.79 166.81C528.61 167.95 528.41 168.98 528.19 169.88C528.004 170.685 527.704 171.459 527.3 172.18C526.968 172.772 526.485 173.265 525.9 173.61C525.216 173.964 524.45 174.133 523.68 174.1V172.1C524.16 172.122 524.634 171.996 525.04 171.74C525.408 171.465 525.695 171.095 525.87 170.67C526.101 170.133 526.275 169.573 526.39 169C526.53 168.36 526.67 167.62 526.81 166.79V166.32L521.19 137.64Z" fill="#003DA6"/>
<path d="M535.591 172.12C536.078 172.151 536.563 172.034 536.983 171.784C537.402 171.534 537.736 171.163 537.941 170.72C538.455 169.48 538.72 168.152 538.721 166.81L539.721 137.64H548.571V174.1H546.491V139.67H541.701L540.761 166.81C540.808 168.687 540.367 170.544 539.481 172.2C539.06 172.843 538.471 173.36 537.779 173.694C537.087 174.029 536.317 174.169 535.551 174.1L535.591 172.12Z" fill="#003DA6"/>
<path d="M555.33 137.64H557.42V150.82H560.54C561.287 150.75 562.039 150.86 562.735 151.14C563.431 151.42 564.05 151.862 564.54 152.43C565.436 153.805 565.864 155.432 565.76 157.07V167.92C565.868 169.549 565.439 171.168 564.54 172.53C564.047 173.092 563.427 173.53 562.731 173.806C562.036 174.083 561.285 174.19 560.54 174.12H555.33V137.64ZM560.54 172.12C561 172.16 561.463 172.081 561.883 171.89C562.304 171.699 562.668 171.403 562.94 171.03C563.48 170.079 563.733 168.992 563.67 167.9V157.07C563.731 155.972 563.478 154.879 562.94 153.92C562.673 153.539 562.311 153.235 561.89 153.039C561.469 152.842 561.003 152.76 560.54 152.8H557.42V172.12H560.54Z" fill="#003DA6"/>
<path d="M570.7 137.64H582.19V139.64H577.5V174.07H575.39V139.67H570.7V137.64Z" fill="#003DA6"/>
<path d="M586.12 137.64H588.12L591.19 153.26L592.76 163.06L594.01 153.26L596.72 137.64H598.72L593.66 166.81C593.49 167.95 593.29 168.98 593.07 169.88C592.879 170.683 592.58 171.457 592.18 172.18C591.847 172.774 591.36 173.268 590.77 173.61C590.089 173.964 589.327 174.133 588.56 174.1V172.1C589.036 172.121 589.508 171.996 589.91 171.74C590.284 171.468 590.575 171.098 590.75 170.67C590.981 170.133 591.155 169.573 591.27 169C591.41 168.36 591.55 167.62 591.69 166.79L591.74 166.32L586.12 137.64Z" fill="#003DA6"/>
<path d="M604.19 137.64H609.4C610.146 137.568 610.897 137.675 611.593 137.951C612.288 138.228 612.908 138.666 613.4 139.23C614.304 140.59 614.733 142.211 614.62 143.84V154.67C614.73 156.308 614.301 157.937 613.4 159.31C612.911 159.879 612.292 160.322 611.596 160.602C610.9 160.882 610.147 160.991 609.4 160.92H606.27V174.1H604.19V137.64ZM606.27 139.64V158.92H609.4C609.862 158.96 610.326 158.878 610.746 158.681C611.166 158.485 611.526 158.181 611.79 157.8C612.333 156.843 612.587 155.748 612.52 154.65V143.84C612.589 142.748 612.335 141.659 611.79 140.71C611.52 140.337 611.158 140.04 610.739 139.849C610.32 139.658 609.859 139.579 609.4 139.62L606.27 139.64Z" fill="#003DA6"/>
<path d="M620.761 137.64H622.841V150.82H625.971C626.718 150.75 627.47 150.86 628.166 151.14C628.862 151.42 629.48 151.862 629.971 152.43C630.867 153.805 631.295 155.432 631.191 157.07V167.92C631.299 169.549 630.87 171.168 629.971 172.53C629.477 173.092 628.857 173.53 628.162 173.806C627.467 174.083 626.716 174.19 625.971 174.12H620.761V137.64ZM625.971 172.12C626.431 172.16 626.894 172.081 627.314 171.89C627.735 171.699 628.099 171.403 628.371 171.03C628.91 170.079 629.164 168.992 629.101 167.9V157.07C629.162 155.972 628.909 154.879 628.371 153.92C628.104 153.539 627.742 153.235 627.321 153.039C626.899 152.842 626.434 152.76 625.971 152.8H622.841V172.12H625.971ZM637.811 137.64H635.721V174.1H637.811V137.64Z" fill="#003DA6"/>
<path d="M234.54 186.45H239.76C240.505 186.377 241.257 186.484 241.953 186.76C242.649 187.037 243.268 187.475 243.76 188.04C244.667 189.403 245.099 191.027 244.99 192.66V203.5C245.098 205.139 244.666 206.769 243.76 208.14C243.273 208.713 242.655 209.159 241.959 209.441C241.262 209.723 240.508 209.832 239.76 209.76H236.63V222.92H234.54V186.45ZM236.63 188.45V207.8H239.76C240.222 207.839 240.686 207.757 241.105 207.56C241.525 207.363 241.885 207.06 242.15 206.68C242.692 205.718 242.945 204.622 242.88 203.52V192.66C242.948 191.568 242.695 190.479 242.15 189.53C241.882 189.154 241.52 188.855 241.101 188.662C240.682 188.469 240.22 188.389 239.76 188.43L236.63 188.45Z" fill="#003DA6"/>
<path d="M263.271 188.49H256.751V203.71H262.191V205.71H256.711V220.92H263.231V222.92H254.631V186.42H263.231L263.271 188.49Z" fill="#003DA6"/>
<path d="M283.08 217.74C283.19 219.263 282.758 220.775 281.86 222.01C280.743 222.958 279.326 223.479 277.86 223.479C276.395 223.479 274.977 222.958 273.86 222.01C272.962 220.775 272.53 219.263 272.64 217.74V191.62C272.525 190.103 272.958 188.595 273.86 187.37C274.983 186.435 276.399 185.922 277.86 185.922C279.322 185.922 280.737 186.435 281.86 187.37C282.762 188.595 283.195 190.103 283.08 191.62V196.92H281V191.62C281.064 190.642 280.808 189.669 280.27 188.85C279.617 188.245 278.76 187.909 277.87 187.909C276.98 187.909 276.123 188.245 275.47 188.85C274.927 189.667 274.671 190.641 274.74 191.62V217.74C274.676 218.724 274.932 219.703 275.47 220.53C276.117 221.146 276.977 221.49 277.87 221.49C278.764 221.49 279.623 221.146 280.27 220.53C280.804 219.701 281.059 218.724 281 217.74V212.52H283.08V217.74Z" fill="#003DA6"/>
<path d="M300.761 188.49H294.501V222.92H292.421V186.42H302.841V222.92H300.761V188.49Z" fill="#003DA6"/>
<path d="M311.811 186.45H313.811L316.881 202.09L318.491 211.92L319.741 202.11L322.451 186.47H324.451L319.391 215.67C319.242 216.706 319.042 217.734 318.791 218.75C318.607 219.551 318.311 220.322 317.911 221.04C317.575 221.635 317.089 222.132 316.501 222.48C315.816 222.835 315.051 223.004 314.281 222.97V220.97C314.762 220.993 315.238 220.864 315.641 220.6C316.012 220.332 316.3 219.965 316.471 219.54C316.703 219.003 316.881 218.443 317.001 217.87C317.131 217.22 317.271 216.49 317.411 215.65L317.461 215.18L311.811 186.45Z" fill="#003DA6"/>
<path d="M333.45 186.45H342.83V188.45H335.54V199.6H338.66C339.408 199.527 340.163 199.637 340.859 199.919C341.556 200.201 342.173 200.647 342.66 201.22C343.563 202.592 343.995 204.221 343.89 205.86V216.71C343.998 218.34 343.566 219.96 342.66 221.32C342.168 221.884 341.548 222.322 340.852 222.599C340.157 222.875 339.405 222.982 338.66 222.91H333.45V186.45ZM335.54 201.63V220.97H338.66C339.121 221.01 339.585 220.93 340.006 220.737C340.426 220.544 340.79 220.246 341.06 219.87C341.603 218.924 341.857 217.839 341.79 216.75V205.92C341.855 204.822 341.602 203.728 341.06 202.77C340.794 202.388 340.432 202.084 340.011 201.887C339.589 201.691 339.123 201.609 338.66 201.65L335.54 201.63Z" fill="#003DA6"/>
<path d="M352.01 220.97C352.499 221.003 352.986 220.885 353.406 220.633C353.827 220.381 354.159 220.007 354.36 219.56C354.874 218.32 355.139 216.992 355.14 215.65L356.14 186.45H365.01V222.92H362.92V188.49H358.19L357.19 215.65C357.235 217.529 356.798 219.388 355.92 221.05C355.497 221.693 354.907 222.21 354.213 222.544C353.519 222.879 352.748 223.019 351.98 222.95L352.01 220.97Z" fill="#003DA6"/>
<path d="M377.4 207.31L377.25 214.14L383.66 188.07L383.82 186.45H385.74V222.92H383.66V202.09L383.82 195.27L377.4 221.34L377.25 222.95H375.32V186.45H377.4V207.31Z" fill="#003DA6"/>
<path d="M406.13 216.17C406.238 217.375 406.472 218.565 406.83 219.72C406.945 220.101 407.185 220.432 407.512 220.659C407.839 220.886 408.233 220.996 408.63 220.97V222.97C407.938 222.99 407.251 222.839 406.63 222.53C406.081 222.219 405.625 221.767 405.31 221.22C404.926 220.559 404.652 219.839 404.5 219.09C404.294 218.133 404.144 217.164 404.05 216.19L403.43 209.94C403.367 208.85 403.081 207.785 402.59 206.81C402.35 206.431 402.008 206.126 401.603 205.932C401.198 205.738 400.747 205.661 400.3 205.71H398.74V222.92H396.65V186.42H398.74V203.68H400.3C400.72 203.72 401.143 203.635 401.515 203.436C401.887 203.236 402.191 202.932 402.39 202.56C402.834 201.564 403.098 200.498 403.17 199.41L403.79 193.2C403.879 192.228 404.029 191.263 404.24 190.31C404.393 189.559 404.663 188.837 405.04 188.17C405.362 187.627 405.821 187.179 406.37 186.87C406.988 186.552 407.676 186.398 408.37 186.42V188.42C407.972 188.393 407.575 188.503 407.248 188.732C406.921 188.961 406.681 189.296 406.57 189.68C406.211 190.831 405.976 192.018 405.87 193.22L405.24 199.43C405.144 200.562 404.891 201.676 404.49 202.74C404.162 203.58 403.54 204.273 402.74 204.69C403.63 205.037 404.348 205.719 404.74 206.59C405.178 207.648 405.448 208.768 405.54 209.91L406.13 216.17Z" fill="#003DA6"/>
<path d="M419.27 207.31L419.11 214.14L425.53 188.07L425.68 186.45H427.61V222.92H425.53V202.09L425.68 195.27L419.27 221.34L419.11 222.95H417.19V186.45H419.28L419.27 207.31Z" fill="#003DA6"/>
<path d="M450.71 186.45H452.71L455.79 202.09L457.35 211.9L458.6 202.09L461.31 186.45H463.31L458.25 215.65C458.102 216.686 457.901 217.714 457.65 218.73C457.463 219.532 457.164 220.303 456.76 221.02C456.431 221.617 455.947 222.114 455.36 222.46C454.687 222.794 453.941 222.952 453.19 222.92V220.92C453.671 220.943 454.147 220.814 454.55 220.55C454.916 220.276 455.202 219.911 455.38 219.49C455.609 218.952 455.783 218.393 455.9 217.82C456.04 217.17 456.18 216.44 456.32 215.6L456.37 215.13L450.71 186.45Z" fill="#003DA6"/>
<path d="M479.021 202.62C479.559 201.668 479.813 200.582 479.751 199.49V191.62C479.815 190.642 479.559 189.669 479.021 188.85C478.368 188.245 477.511 187.909 476.621 187.909C475.731 187.909 474.873 188.245 474.221 188.85C473.678 189.667 473.421 190.641 473.491 191.62V196.92H471.411V191.62C471.296 190.103 471.729 188.595 472.631 187.37C473.754 186.435 475.169 185.922 476.631 185.922C478.092 185.922 479.508 186.435 480.631 187.37C481.533 188.595 481.965 190.103 481.851 191.62V199.49C481.851 202.2 480.991 203.94 479.251 204.7C480.991 205.47 481.851 207.2 481.851 209.92V217.74C481.961 219.263 481.528 220.775 480.631 222.01C479.514 222.958 478.096 223.479 476.631 223.479C475.165 223.479 473.748 222.958 472.631 222.01C471.733 220.775 471.301 219.263 471.411 217.74V212.52H473.491V217.74C473.427 218.724 473.683 219.703 474.221 220.53C474.868 221.146 475.727 221.49 476.621 221.49C477.514 221.49 478.374 221.146 479.021 220.53C479.554 219.701 479.81 218.724 479.751 217.74V209.92C479.814 208.828 479.56 207.741 479.021 206.79C478.75 206.415 478.386 206.117 477.966 205.924C477.545 205.731 477.082 205.651 476.621 205.69H474.011V203.69H476.621C477.079 203.733 477.54 203.657 477.961 203.469C478.381 203.282 478.746 202.989 479.021 202.62V202.62Z" fill="#003DA6"/>
<path d="M492.001 186.45H501.391V188.45H494.091V199.6H497.191C497.939 199.527 498.693 199.637 499.39 199.919C500.086 200.201 500.704 200.647 501.191 201.22C502.094 202.592 502.526 204.221 502.421 205.86V216.71C502.529 218.34 502.096 219.96 501.191 221.32C500.699 221.884 500.079 222.323 499.383 222.6C498.688 222.876 497.936 222.983 497.191 222.91H491.971L492.001 186.45ZM494.091 201.63V220.97H497.191C497.65 221.011 498.113 220.93 498.532 220.738C498.951 220.545 499.313 220.246 499.581 219.87C500.124 218.924 500.378 217.839 500.311 216.75V205.92C500.376 204.822 500.122 203.728 499.581 202.77C499.317 202.388 498.957 202.084 498.537 201.887C498.117 201.69 497.653 201.608 497.191 201.65L494.091 201.63Z" fill="#003DA6"/>
<path d="M520.991 188.49H514.471V203.71H519.951V205.71H514.471V220.92H520.991V222.92H512.391V186.42H520.991V188.49Z" fill="#003DA6"/>
<path d="M540.6 216.17C540.703 217.375 540.937 218.566 541.3 219.72C541.412 220.103 541.651 220.436 541.979 220.664C542.307 220.891 542.702 220.999 543.1 220.97V222.97C542.408 222.99 541.721 222.839 541.1 222.53C540.548 222.22 540.089 221.767 539.77 221.22C539.386 220.559 539.112 219.839 538.96 219.09C538.753 218.133 538.606 217.165 538.52 216.19L537.89 209.94C537.833 208.85 537.551 207.784 537.06 206.81C536.819 206.431 536.477 206.128 536.072 205.934C535.667 205.739 535.217 205.662 534.77 205.71H533.19V222.92H531.11V186.42H533.19V203.68H534.76C535.179 203.721 535.6 203.636 535.971 203.436C536.341 203.237 536.644 202.932 536.84 202.56C537.284 201.564 537.548 200.498 537.62 199.41L538.25 193.2C538.336 192.228 538.483 191.263 538.69 190.31C538.841 189.557 539.115 188.834 539.5 188.17C539.819 187.625 540.279 187.176 540.83 186.87C541.448 186.552 542.136 186.398 542.83 186.42V188.42C542.431 188.391 542.034 188.5 541.706 188.73C541.378 188.959 541.14 189.295 541.03 189.68C540.667 190.831 540.429 192.018 540.32 193.22L539.7 199.43C539.605 200.564 539.349 201.678 538.94 202.74C538.619 203.581 538 204.275 537.2 204.69C538.091 205.035 538.81 205.718 539.2 206.59C539.642 207.648 539.915 208.768 540.01 209.91L540.6 216.17Z" fill="#003DA6"/>
<path d="M553.73 207.31L553.58 214.14L559.99 188.07L560.15 186.45H562.08V222.92H559.99V202.09L560.15 195.27L553.73 221.34L553.58 222.95H551.65V186.45H553.73V207.31Z" fill="#003DA6"/>
<path d="M582.67 217.74C582.775 219.262 582.343 220.773 581.45 222.01C580.333 222.958 578.916 223.479 577.45 223.479C575.985 223.479 574.567 222.958 573.45 222.01C572.549 220.777 572.113 219.264 572.22 217.74V191.62C572.108 190.102 572.545 188.594 573.45 187.37C574.573 186.435 575.989 185.922 577.45 185.922C578.912 185.922 580.327 186.435 581.45 187.37C582.348 188.597 582.781 190.103 582.67 191.62V196.92H580.59V191.62C580.657 190.64 580.396 189.666 579.85 188.85C579.199 188.246 578.344 187.91 577.455 187.91C576.567 187.91 575.711 188.246 575.06 188.85C574.518 189.667 574.261 190.641 574.33 191.62V217.74C574.266 218.724 574.522 219.703 575.06 220.53C575.706 221.146 576.563 221.489 577.455 221.489C578.347 221.489 579.205 221.146 579.85 220.53C580.392 219.704 580.652 218.726 580.59 217.74V212.52H582.67V217.74Z" fill="#003DA6"/>
<path d="M590.54 186.45H602.01V188.45H597.32V222.92H595.24V188.49H590.54V186.45Z" fill="#003DA6"/>
<path d="M617.191 216.12H610.461L609.521 222.95H607.381L612.811 186.4H614.891L620.321 222.92H618.191L617.191 216.12ZM610.771 214.12H616.931L615.411 203.54L613.851 191.28L612.291 203.54L610.771 214.12Z" fill="#003DA6"/>
<path d="M635.75 205.69H629.49V222.92H627.41V186.42H629.49V203.68H635.75V186.45H637.83V222.92H635.75V205.69Z" fill="#003DA6"/>
</svg>
