<?xml version="1.0" encoding="UTF-8"?>
<!DOCTYPE svg PUBLIC "-//W3C//DTD SVG 1.1//EN" "http://www.w3.org/Graphics/SVG/1.1/DTD/svg11.dtd">
<!-- Creator: CorelDRAW 2019 (64-Bit) -->
<svg xmlns="http://www.w3.org/2000/svg" xml:space="preserve" width="210mm" height="297mm" version="1.1" style="shape-rendering:geometricPrecision; text-rendering:geometricPrecision; image-rendering:optimizeQuality; fill-rule:evenodd; clip-rule:evenodd"
viewBox="0 0 21000 29700"
 xmlns:xlink="http://www.w3.org/1999/xlink">
 <defs>
  <style type="text/css">
   <![CDATA[
    .fil0 {fill:#00A0E3}
    .fil1 {fill:#009846}
    .fil2 {fill:#393185}
   ]]>
  </style>
 </defs>
 <g id="Layer_x0020_1">
  <metadata id="CorelCorpID_0Corel-Layer"/>
  <g id="_2434037052816">
   <g>
    <polygon class="fil0" points="7458.59,12208.1 2547.26,12208.1 1539.18,11312.85 7111.3,11312.85 "/>
    <rect class="fil1" transform="matrix(2.28708 -0 2.57533 2.28708 2447.42 12886)" width="2240.62" height="391.44"/>
   </g>
   <g>
    <polygon class="fil0" points="13574.14,12208.1 18485.47,12208.1 19493.54,11312.85 13921.43,11312.85 "/>
    <rect class="fil1" transform="matrix(2.28708 -0 -2.57533 2.28708 13460.8 12886)" width="2240.62" height="391.44"/>
   </g>
   <path class="fil2" d="M13632.14 16390.66l-2714.44 0 0 5529.64 -811.96 0 0 -5529.64 -2720.37 0 0 -811.96 6246.77 0 0 811.96zm320.05 2797.42l0 2690.73c0,906.79 -391.17,1724.68 -1019.4,2323.28 -533.41,509.7 -1238.69,847.52 -2015.09,930.5l0 2815.19c1629.85,-100.75 3111.53,-811.96 4207.98,-1908.4 1185.34,-1185.35 1920.26,-2821.13 1920.26,-4616.92 0,-2572.2 -23.71,-5126.62 -23.71,-7675.12l118.54 -290.41 2092.13 -2115.84 -5174.03 0c-118.54,1855.07 -1671.34,3336.75 -3550.11,3336.75 -1890.63,0 -3449.36,-1493.53 -3556.04,-3354.53l-5185.88 0 2092.13 2080.28 118.54 284.49c5.92,2572.2 -5.93,5144.4 -5.93,7734.38 0,1795.79 734.91,3431.57 1920.26,4616.92 1096.44,1096.44 2572.2,1807.65 4213.9,1908.4l0 -2809.27c-782.33,-88.9 -1487.61,-426.72 -2015.09,-936.42 -628.23,-598.6 -1019.39,-1416.49 -1019.39,-2323.28l0 -2690.73 811.96 0 0 2690.73c0,675.65 290.41,1286.1 764.55,1736.53 474.13,450.44 1137.93,728.99 1860.99,728.99l0 0c728.99,0 1386.85,-278.55 1860.99,-728.99 474.14,-450.43 764.55,-1060.88 764.55,-1736.53l0 -2690.73 817.89 0zm-2121.77 -7995.15l-2643.32 0 0 -811.97 2643.32 0 0 811.97zm-1321.66 -2827.05c-1511.32,0 -2750,1232.76 -2750,2744.07 0,1517.24 1238.68,2750 2750,2750 1517.24,0 2750,-1232.76 2750,-2750 0,-1511.31 -1232.76,-2744.07 -2750,-2744.07zm7568.43 13447.74c-11.86,189.65 -29.64,379.31 -47.42,568.96 -29.63,189.66 -59.26,373.39 -94.82,563.04 -41.49,183.73 -82.98,367.46 -136.32,545.26 -53.34,177.8 -106.68,355.61 -171.87,533.41 -65.2,171.87 -136.32,343.75 -207.44,509.7 -77.05,171.87 -160.02,331.89 -248.92,497.84 -88.9,160.02 -183.73,314.12 -278.56,468.21 -100.75,154.1 -201.51,302.27 -314.11,450.43 -112.61,148.17 -225.22,290.41 -343.75,426.73 -118.54,136.31 -243,272.63 -373.39,403.02 -130.39,124.46 -260.77,248.92 -397.09,373.38 -142.24,118.53 -278.55,231.14 -426.72,343.75 -148.17,106.68 -296.34,207.44 -450.43,308.19 -154.1,100.75 -314.12,189.65 -474.14,284.48 -160.02,82.98 -325.97,165.95 -491.92,243 -171.88,77.05 -337.82,142.24 -515.63,213.36 -171.87,59.27 -349.67,118.53 -527.47,171.88 -183.73,47.41 -361.53,88.9 -545.26,130.38 -189.66,35.56 -373.39,71.12 -563.04,94.83 -189.66,23.71 -379.31,41.49 -574.89,53.34 -195.59,5.93 -385.24,5.93 -580.82,5.93 -195.59,-5.93 -385.24,-17.78 -580.82,-35.56 -189.66,-23.71 -373.39,-47.42 -563.04,-82.98 -183.73,-35.56 -367.46,-71.12 -551.19,-118.53 -183.73,-47.41 -361.53,-100.76 -539.33,-160.02 -171.87,-59.27 -343.75,-130.39 -515.62,-195.58 -171.88,-77.05 -337.83,-154.1 -503.78,-237.07 -160.02,-82.98 -320.04,-171.88 -480.06,-266.71 -154.1,-100.75 -308.19,-201.5 -456.36,-302.26 -148.17,-106.68 -290.41,-219.29 -432.65,-331.9 -142.24,-118.53 -278.56,-242.99 -408.94,-367.45 -130.39,-124.46 -260.78,-254.85 -385.24,-391.17 -118.54,-136.31 -237.07,-272.63 -349.68,-414.87 -112.61,-148.17 -219.29,-290.41 -320.04,-444.5 -100.76,-154.1 -201.51,-308.19 -290.41,-462.29 -94.83,-165.95 -177.8,-325.97 -260.78,-491.92 -77.04,-165.94 -154.09,-331.89 -225.21,-503.77 -65.2,-171.87 -124.46,-349.67 -183.73,-527.48 -53.34,-177.8 -100.76,-355.6 -148.17,-539.33 -41.49,-183.73 -77.05,-367.45 -106.68,-557.11 -23.71,-189.66 -47.41,-379.31 -65.19,-568.97 -11.86,-195.58 -17.78,-385.23 -23.71,-580.81 0,-2489.23 17.78,-4984.38 5.93,-7473.61l-1926.19 -1920.26 -5.93 5.93 -894.93 -900.86 0 -5.93 0 0 894.93 -900.86 5.93 0 1926.19 -1914.33 11.85 -3822.74 11.85 -640.09 4391.71 11.85 3170.8 -3147.09 3099.67 3123.39 3822.74 11.85 634.16 5.93 -5.93 4397.63 2850.76 2874.46 0 0 0 0 -2850.76 2880.39c5.93,2471.45 23.71,4942.89 23.71,7414.34l-11.85 391.16zm-1054.96 -13305.5l-3194.5 1321.66c130.38,325.97 207.43,675.65 231.14,1037.18l5126.62 0 -2044.72 -2062.51 -118.54 -290.41 0 -5.92zm5.93 -3561.96l-3834.59 3828.66c231.14,266.7 426.72,568.97 568.96,894.94l3259.7 -1345.37 5.93 -3378.23zm-3810.89 -118.54l-1256.46 3034.49c331.89,148.16 628.23,343.75 894.93,574.89l3550.11 -3544.18 -3058.19 -11.86 -130.39 -53.34zm-2447.74 -2364.76l0 5096.98c367.46,23.71 711.21,106.68 1037.18,231.14l1256.47 -3028.55 -2293.65 -2299.57zm-2797.41 2246.23l1274.25 3070.04c325.97,-124.46 681.57,-201.51 1049.03,-225.21l0 -5150.33 -2323.28 2305.5zm-3289.33 189.65l3508.62 3508.62c266.7,-231.14 568.96,-420.79 894.93,-563.04l-1256.46 -3034.48 -219.29 94.83 -2927.8 -5.93zm-705.28 3396.02l3277.48 1357.22c154.09,-331.9 355.6,-640.09 592.67,-912.72l-3840.52 -3840.52 -17.78 0 -11.85 3396.02zm-2115.85 2548.49l5091.06 0c29.64,-361.53 112.61,-711.21 237.07,-1031.25l-3212.28 -1333.52 0 94.83 -118.54 284.49 -1997.31 1985.45z"/>
  </g>
 </g>
</svg>
