<?xml version="1.0" encoding="UTF-8"?>
<!DOCTYPE svg PUBLIC "-//W3C//DTD SVG 1.1//EN" "http://www.w3.org/Graphics/SVG/1.1/DTD/svg11.dtd">
<!-- Creator: CorelDRAW 2019 (64-Bit) -->
<svg xmlns="http://www.w3.org/2000/svg" xml:space="preserve" width="198mm" height="67mm" version="1.1" style="shape-rendering:geometricPrecision; text-rendering:geometricPrecision; image-rendering:optimizeQuality; fill-rule:evenodd; clip-rule:evenodd"
viewBox="0 0 19800 6700"
 xmlns:xlink="http://www.w3.org/1999/xlink">
 <defs>
  <style type="text/css">
   <![CDATA[
    .fil0 {fill:#00A0E3}
    .fil1 {fill:#00A0E3;fill-rule:nonzero}
   ]]>
  </style>
 </defs>
 <g id="Layer_x0020_1">
  <metadata id="CorelCorpID_0Corel-Layer"/>
  <g id="_2559424001456">
   <path class="fil0" d="M132.39 3381.21l3161.82 -3137.5 2188.97 2141.44c-501.9,0 -923.84,-348.56 -1410.66,-348.56 -583.72,-49.78 -1167.46,149.37 -1507.96,298.78 360.69,-5.75 708.08,-12.85 1016.82,79.93 589.38,177.12 1097.66,517.7 1707.26,517.7 145.91,0 389.11,-49.83 583.7,-149.37l486.45 497.91c-291.86,49.89 -924.24,149.43 -1556.62,-99.54 -792.71,-347.95 -1437.29,-251.5 -2237.61,99.54 291.86,0 632.36,0 924.24,49.89 437.79,49.78 681.01,149.37 1118.8,348.56 291.86,149.37 486.45,199.24 681.04,199.24 291.81,0 778.29,-199.24 1118.73,-398.43l-826.92 796.85c-243.2,0 -486.4,-49.86 -778.28,-199.24 -340.5,-149.43 -632.36,-199.18 -729.65,-199.18 -583.72,-49.87 -1167.46,149.4 -1507.96,348.56 767.62,0 1337.01,77.21 2043.04,398.42 194.57,99.6 340.5,149.4 486.45,149.4l-1799.84 1743.08 -3161.82 -3137.48z"/>
   <polygon class="fil0" points="7065.08,3212.92 19615.04,3212.92 19615.04,3369.14 7065.08,3369.14 "/>
   <path class="fil1" d="M15900.68 342.2c-203.8,0 -358.36,113.3 -464.76,339.29 -86.23,185.13 -129.33,451.92 -129.33,799.07 0,412.96 66.63,718.08 199.9,915.43 92.93,138.28 223.43,207.08 390.85,207.08 112.54,0 206.64,-29.83 282.2,-88.92 95.78,-76.14 170.81,-197.92 224.56,-365.43 53.78,-166.89 80.64,-384.93 80.64,-653.54 0,-320.37 -27.43,-559.72 -82.32,-718.08 -54.88,-158.98 -124.31,-271.05 -209.41,-336.83 -84.56,-65.15 -181.99,-98.07 -292.33,-98.07zm-20.13 -113.88c354.46,-14.6 642.26,98.08 864.02,336.82 221.17,239.36 332.06,538.41 332.06,897.76 0,306.98 -82.32,576.8 -247.52,810.07 -218.94,309.4 -528.03,464.11 -927.29,464.11 -399.83,0 -709.49,-147.41 -928.43,-442.8 -172.46,-233.27 -259.26,-509.78 -259.26,-829.56 0,-359.33 112.56,-658.99 337.09,-898.38 225.1,-239.94 501.17,-352.62 829.33,-338.02z"/>
   <path class="fil1" d="M13090.47 362.28l0 1099.25 98.04 0c159.12,0 278.3,-15.16 357.56,-46.75 79.28,-31.58 141.53,-88.45 186.71,-170.55 45.23,-82.13 68.13,-188.89 68.13,-320.93 0,-191.47 -41.7,-332.34 -125.06,-423.94 -82.79,-91.62 -216.66,-137.08 -401.61,-137.08l-183.77 0zm0 1230.68l0 703.79c0,135.82 7.61,221.13 22.89,255.86 15.86,35.36 42.86,63.79 81.61,84.65 39.35,20.86 112.16,31.6 218.99,31.6l0 68.22 -1194.21 0 0 -68.22c108.04,0 180.84,-10.74 219.6,-32.87 38.16,-21.47 65.14,-49.26 81.01,-84.01 15.27,-34.74 22.9,-119.41 22.9,-255.23l0 -1628.7c0,-135.84 -7.63,-221.12 -22.9,-256.52 -15.87,-35.34 -42.85,-63.17 -82.2,-84.01 -38.76,-21.47 -111.56,-31.58 -218.41,-31.58l0 -68.87 1083.84 0c282.41,0 488.5,21.48 619.44,63.18 130.36,41.7 237.19,119.4 319.99,232.49 82.2,112.46 123.87,245.12 123.87,396.76 0,185.1 -62.22,337.98 -186.12,459.3 -79.26,76.42 -189.63,133.91 -331.74,171.82l560.74 849.74c73.37,109.91 125.65,178.14 156.17,205.32 47.56,38.55 101.56,59.39 163.81,63.18l0 68.22 -734.51 0 -751.55 -1144.12 -153.22 0z"/>
   <path class="fil1" d="M9574.89 227.08l1258.38 0 0 67.28 -62.62 0c-94.53,0 -159.58,9.87 -195.21,29.6 -35.6,19.76 -60.76,47.55 -75.49,82.1 -14.74,35.17 -22.73,122.83 -22.73,262.29l0 1200.4c0,219.69 16.59,364.74 49.74,436.33 33.13,70.98 87.17,129.62 162.66,177.12 75.5,46.92 170.65,70.36 286.06,70.36 131.97,0 244.31,-29.61 337.01,-89.5 93.31,-59.85 162.68,-141.95 208.71,-246.84 46.04,-104.93 69.36,-287.62 69.36,-548.05l0 -999.82c0,-109.85 -11.66,-188.22 -34.39,-235.13 -22.69,-46.92 -51.55,-79.61 -85.91,-97.5 -54.04,-27.78 -130.16,-41.36 -228.99,-41.36l0 -67.28 843.44 0 0 67.28 -50.33 0c-68.14,0 -125.22,13.58 -170.65,41.36 -45.41,27.77 -78.59,69.1 -98.83,124.65 -15.35,38.87 -23.32,108.01 -23.32,207.98l0 931.29c0,288.22 -19.03,496.23 -56.49,623.96 -38.03,127.78 -130.13,245.02 -276.21,352.43 -146.12,107.39 -346.23,161.05 -599.12,161.05 -210.58,0 -373.85,-28.39 -489.24,-85.15 -156.55,-77.15 -267.66,-175.9 -332.71,-296.25 -64.46,-120.94 -97.01,-282.66 -97.01,-486.93l0 -1200.4c0,-140.71 -7.35,-228.34 -23.32,-262.91 -15.34,-34.56 -42.35,-61.72 -81.04,-82.07 -38.05,-21.01 -108.64,-30.26 -211.75,-29.01l0 -67.28z"/>
   <path class="fil1" d="M9421.26 227.07l0 679.79 -69.25 0c-41.55,-157.31 -87.09,-269.75 -137.17,-338.01 -50.14,-68.85 -119.39,-123.2 -207.09,-163.63 -48.8,-22.71 -134.55,-33.48 -256.55,-33.48l-195.23 0 0 1935.76c0,128.23 7.27,208.45 21.78,240.68 15.16,32.24 44.17,60.02 87.05,84.02 43.53,24.66 102.22,36.66 176.73,36.66l87.08 0 0 68.22 -1371.77 0 0 -68.22 87.05 0c75.84,0 137.17,-13.28 183.34,-39.18 33.64,-17.04 60.01,-46.74 79.14,-89.09 14.51,-29.04 21.78,-106.77 21.78,-233.09l0 -1935.76 -189.97 0c-176.07,0 -304.68,35.4 -384.49,107.42 -112.08,99.81 -182.66,242.6 -212.35,427.7l-73.21 0 0 -679.79 2353.13 0z"/>
   <path class="fil1" d="M17966.15 227.06l1197.82 1521.85 0 -1054.92c0,-146.96 -20.76,-246.46 -62.34,-298.27 -57.41,-69.82 -153.35,-103.78 -288.41,-101.32l0 -67.34 801.79 0 0 67.34c-102.69,12.99 -171.13,30.27 -206.54,51.24 -35.42,21.05 -62.92,55.59 -82.52,103.13 -19.52,47.6 -29.32,129.76 -29.32,245.22l0 2043.08 -61.1 0 -1641.61 -2043.08 0 1612.14c0,140.79 31.79,235.93 96.02,285.36 63.5,50 136.87,74.75 218.73,74.75l57.48 0 0 66.69 -861.15 0 0 -66.69c133.9,-1.24 226.79,-29.03 279.33,-83.39 52.55,-54.36 78.82,-146.38 78.82,-276.72l0 -1783.85 -51.97 -65.46c-51.3,-64.88 -96.52,-107.48 -136.29,-128.45 -39.04,-20.4 -95.94,-31.5 -169.89,-33.97l0 -67.34 861.15 0z"/>
   <path class="fil1" d="M9400.5 5093c274.33,58.28 467.14,129.94 577.77,213.64 159.36,119.21 238.66,273.26 238.66,462.8 0,200.24 -87.31,365.67 -261.97,496.27 -214.63,158.71 -526.81,237.75 -935.74,237.75l-1469.16 0 0 -72.35c133.88,0 224.1,-11.38 272.15,-34.8 47.28,-22.77 80.79,-52.25 99.7,-89.08 19.63,-36.85 29.1,-126.59 29.1,-270.59l0 -1726.55c0,-144 -9.47,-234.42 -29.1,-271.93 -18.91,-37.48 -53.12,-66.96 -101.13,-89.04 -48.07,-22.8 -138.3,-33.5 -270.72,-33.5l0 -73 1385.46 0c331.08,0 566.11,27.46 703.65,81.71 138.24,54.24 246.68,135.26 326.01,243.09 80.01,107.84 119.31,223.04 119.31,344.24 0,128.61 -50.2,242.45 -151.35,342.91 -100.4,99.8 -277.94,179.49 -532.64,238.43zm-775.67 -53.59c201.55,0 349.99,-20.75 446.02,-62.27 96.08,-42.2 169.59,-101.14 221.24,-176.82 50.93,-75.67 76.39,-172.77 76.39,-290.65 0,-117.22 -25.46,-213.64 -75.69,-289.34 -50.2,-74.99 -122.22,-131.94 -216.09,-171.44 -93.87,-39.53 -244.49,-58.25 -451.87,-56.92l0 1047.44zm0 153.39l0 853.23 -2.19 98.44c0,70.33 18.91,123.91 58.22,160.09 39.3,35.48 96.78,53.55 173.9,53.55 113.5,0 218.3,-22.76 314.33,-69.63 96.08,-46.22 169.56,-113.87 220.49,-202.26 51.68,-87.74 77.14,-186.18 77.14,-294.7 0,-124.56 -31.29,-236.41 -93.87,-334.84 -62.58,-98.47 -148.44,-167.46 -258.33,-206.96 -109.14,-39.53 -272.84,-58.25 -489.69,-56.92z"/>
   <path class="fil1" d="M11991.01 5761.31l-939.01 0 -111.78 253.94c-36.82,84.65 -54.88,154.22 -54.88,209.32 0,73.5 30.12,127.31 90.36,161.44 34.81,21 121.8,36.08 260.34,46.57l0 70.88 -884.13 0 0 -70.88c95.05,-14.42 174.02,-53.15 234.91,-116.78 61.58,-63.02 137.87,-194.23 227.56,-393.07l951.08 -2080.1 37.49 0 958.41 2137.85c91.7,202.76 166.66,330.05 225.56,382.55 44.86,40.02 107.78,62.99 188.73,69.55l0 70.88 -1286.36 0 0 -70.88 52.87 0c103.06,0 176.01,-14.42 217.52,-42.64 28.78,-20.35 43.52,-49.88 43.52,-88.58 0,-22.98 -4.02,-46.6 -12.06,-70.88 -2.68,-11.8 -22.08,-59.7 -58.91,-144.35l-141.22 -324.82zm-66.94 -142.4l-395.56 -897.65 -408.26 897.65 803.82 0z"/>
   <path class="fil1" d="M14404.29 3843.3l1272.73 1612.43 0 -1117.7c0,-155.75 -22.13,-261.12 -66.28,-316.09 -61.01,-73.94 -162.98,-109.92 -306.47,-107.31l0 -71.33 851.93 0 0 71.33c-109.09,13.74 -181.81,32.06 -219.45,54.31 -37.68,22.24 -66.9,58.89 -87.67,109.28 -20.77,50.39 -31.17,137.43 -31.17,259.81l0 2164.77 -64.95 0 -1744.15 -2164.77 0 1713.92c0,149.16 33.78,249.97 101.95,302.33 67.51,53 145.46,79.17 232.45,79.17l61.08 0 0 70.68 -914.96 0 0 -70.68c142.21,-1.31 240.9,-30.79 296.75,-88.35 55.82,-57.56 83.77,-155.08 83.77,-293.15l0 -1895.84 -55.22 -69.38c-54.52,-68.71 -102.57,-113.87 -144.77,-136.12 -41.6,-21.58 -101.96,-33.37 -180.53,-35.98l0 -71.33 914.96 0z"/>
   <path class="fil1" d="M17893.09 4861.28l857.74 1171.35c121.59,164.75 225.95,276.59 313.14,335.53 63.87,41.52 130.79,62.95 201.39,62.95l0 72.35 -1269.73 0 0 -72.35c80.43,-8.02 132.01,-22.08 155.34,-41.52 23.94,-19.41 35.6,-43.51 35.6,-72.31 0,-54.93 -55.27,-158.75 -165.77,-310.09l-559.35 -767.51 -90.27 82.36 0 725.99c0,138.65 7.4,225.05 22.1,259.2 14.14,34.15 41.77,62.95 82.31,87.06 41.13,24.78 106.2,36.82 196.44,36.82l0 72.35 -1230.42 0 0 -72.35 81.03 0c70.62,0 127.71,-14.06 170.7,-41.52 31.32,-18.07 55.27,-49.55 71.84,-94.43 13.52,-30.79 19.64,-113.18 19.64,-247.13l0 -1750.01c0,-135.95 -6.12,-221.01 -19.64,-255.16 -12.89,-34.15 -39.93,-63.64 -79.8,-89.08 -40.57,-25.44 -94.57,-38.16 -162.74,-38.16l-81.03 0 0 -73 1213.85 0 0 73c-82.25,0 -145.5,12.72 -188.5,38.85 -31.3,18.75 -55.85,49.54 -73.68,92.4 -14.7,32.82 -22.1,116.54 -22.1,251.15l0 827.79 905.04 -798.3c125.87,-111.19 189.1,-200.27 189.1,-266.55 0,-50.23 -25.77,-89.08 -77.34,-117.88 -26.4,-14.74 -92.12,-23.45 -196.5,-27.46l0 -73 951.7 0 0 73c-85.33,6.69 -151.65,22.77 -200.16,49.55 -49.14,26.8 -160.87,117.87 -335.86,271.92l-714.07 624.19z"/>
  </g>
 </g>
</svg>
