<?xml version="1.0" encoding="UTF-8"?>
<!DOCTYPE svg PUBLIC "-//W3C//DTD SVG 1.1//EN" "http://www.w3.org/Graphics/SVG/1.1/DTD/svg11.dtd">
<!-- Creator: CorelDRAW 2019 (64-Bit) -->
<svg xmlns="http://www.w3.org/2000/svg" xml:space="preserve" width="210mm" height="240mm" version="1.1" style="shape-rendering:geometricPrecision; text-rendering:geometricPrecision; image-rendering:optimizeQuality; fill-rule:evenodd; clip-rule:evenodd"
viewBox="0 0 21000 24000"
 xmlns:xlink="http://www.w3.org/1999/xlink">
 <defs>
  <style type="text/css">
   <![CDATA[
    .fil0 {fill:#9D7C5E}
   ]]>
  </style>
 </defs>
 <g id="Слой_x0020_1">
  <metadata id="CorelCorpID_0Corel-Layer"/>
  <g id="asaka_x0020_color">
   <polygon class="fil0" points="14625.02,546.46 1116.93,13167.64 13431.97,2578.52 13431.97,3483.24 848.05,14940.2 13431.97,4337.19 13431.97,5245.6 586.33,16707.52 13431.97,6093.93 13431.97,7013 287.81,18501.74 13431.97,7878.47 13431.97,11862.84 10043.46,12288.19 13431.97,12288.19 13431.97,12708.66 9148.79,13138.89 13431.97,13138.89 13431.97,13569.11 8254.12,13984.63 13431.97,13984.63 13431.97,14414.85 7335.06,14827.71 13431.97,14827.71 13690.58,14827.71 14644.23,14827.71 "/>
   <path class="fil0" d="M4547.79 19437.94l1031.55 -2219.17c0,0 195.57,-428.11 664.89,-428.11 469.32,0 664.89,428.11 664.89,428.11l1031.55 2219.17 -351.74 0 -370.21 -797.07 -1948.98 0 -370.21 797.07 -351.74 0zm2524.37 -1112.78l-450.84 -970.7c-69.55,-142.68 -218.41,-243.92 -377.09,-243.92 -158.68,0 -307.98,102.28 -377.01,243.77l-450.92 970.85 1655.86 0z"/>
   <path class="fil0" d="M10823.5 17149.94l0 -312.86 -2121.79 0c0,0 -699.11,0 -699.11,664.89 0,664.88 713.75,679.52 713.75,679.52l1417.8 122.24c0,0 567.1,9.76 567.1,435.11 0,425.34 -674.64,400.88 -674.64,400.88l-2107.08 0 0 298.22 2258.59 0c0,0 816.48,-19.58 816.48,-689.35 0,-669.76 -606.28,-718.62 -889.8,-747.96 -283.51,-29.34 -1383.5,-117.37 -1383.5,-117.37 0,0 -415.59,-68.36 -415.59,-351.95 0,-283.59 136.88,-371.62 435.1,-381.37 298.22,-9.76 2082.69,0 2082.69,0z"/>
   <path class="fil0" d="M10942.42 19437.94l1031.55 -2219.17c0,0 195.56,-428.11 664.88,-428.11 469.33,0 664.89,428.11 664.89,428.11l1031.55 2219.17 -351.73 0 -370.21 -797.07 -1948.99 0 -370.21 797.07 -351.73 0zm2524.37 -1112.78l-450.85 -970.7c-69.55,-142.68 -218.4,-243.92 -377.09,-243.92 -158.68,0 -307.97,102.28 -377.01,243.77l-450.92 970.85 1655.87 0z"/>
   <path class="fil0" d="M14548.82 16837.08l307.98 0 0 1139.09 1153.79 0c0,0 332.37,-53.73 547.52,-347.08 215.15,-293.34 567.11,-787.13 567.11,-787.13l371.61 0 -713.81 987.57c0,0 -171.77,213.82 -372.8,293.27 378.78,235.4 963.55,1069.77 1164,1314.11l-371.62 0c-453.88,-476.94 -814.85,-1160.52 -1257.93,-1158.9l-1087.87 0 0 1159.93 -307.98 0 0 -2600.86z"/>
   <path class="fil0" d="M17356.55 19437.94l1031.55 -2219.17c0,0 195.57,-428.11 664.89,-428.11 469.32,0 664.89,428.11 664.89,428.11l1031.55 2219.17 -351.74 0 -370.21 -797.07 -1948.98 0 -370.21 797.07 -351.74 0zm2524.37 -1112.78l-450.84 -970.7c-69.55,-142.68 -218.41,-243.92 -377.09,-243.92 -158.68,0 -307.98,102.28 -377.01,243.77l-450.92 970.85 1655.86 0z"/>
   <path class="fil0" d="M16315.92 21187.08l189.87 0 0 1047.53 1084.94 0c0,0 276.69,-29.65 474.51,-256.73 197.88,-227.01 570.5,-786.54 570.5,-786.54l231.41 0 -623.93 863.23c0,0 -181.67,204.59 -357.32,274.04 287.03,98.13 685.44,716.9 1053.8,1130.94l-234.44 0c-384.58,-407.13 -751.27,-1046.18 -1138.56,-1044.76l-1060.91 0 0 1045.66 -189.87 0 0 -2273.37z"/>
   <path class="fil0" d="M9710.42 23460.45l894.01 -1923.26c0,0 169.48,-371.03 576.23,-371.03 406.74,0 576.23,371.03 576.23,371.03l894 1923.26 -211.31 0.58 -343.01 -733.02 -1849.12 0 -342.81 732.44 -194.22 0zm2308.13 -910.7l-425 -899.93c-60.21,-123.66 -197.41,-299.98 -417.82,-299.98 -225.41,0 -367.67,179.74 -427.57,302.36l-412.76 892.65 1683.15 4.9z"/>
   <path class="fil0" d="M6836.98 21193.14l185.81 0 1872.12 0.07c332.44,8.36 621.28,232.08 621.28,597.41 0,224.24 -113.67,390.83 -276.79,491.42 201.77,103.55 350.7,300.81 350.7,557.58 0,365.33 -288.84,589.05 -621.28,597.4l-1946.03 0.08 -185.81 0 0 -1043.75 0 -188.25 0 -1011.96zm2068.72 1196.96c-18.18,1.7 -36.51,2.81 -54.84,3.25l-1828.07 0 0 867.77 1920.01 0c0,0 459.05,-9.68 459.05,-415.52 0,-391.13 -462.59,-451.66 -496.15,-455.5zm-35.03 -188.39l-1847.88 3.1 0 -835.69 1846.1 0c0,0 459.05,9.68 459.05,415.52 0,334.51 -338.28,403.24 -457.27,417.07z"/>
   <path class="fil0" d="M15578.89 21198.24l190.68 0 0 2268.42 -190.68 0c0,0 -251.96,22.25 -479.23,-131.78 -227.27,-154.03 -699.11,-814.03 -828.67,-972.94 -129.56,-158.9 -616.03,-840.86 -814.03,-924.01 -143.02,-60.02 -259.2,-74.21 -312.71,-77.39l0 2106.12 -190.69 0 0 -2268.42 190.69 0c0,0 262.6,-10.42 463.04,124.02 200.44,134.44 595.34,616.62 864.22,1012.63 268.88,396 591.49,762.67 760.15,860.45 168.66,97.78 347.23,92.9 347.23,92.9l0 -2090z"/>
  </g>
 </g>
</svg>
