<svg width="40" height="40" viewBox="0 0 40 40" fill="none" xmlns="http://www.w3.org/2000/svg">
<rect width="40" height="40" rx="20" fill="#B3FB54"/>
<path opacity="0.75" fill-rule="evenodd" clip-rule="evenodd" d="M19.4824 11C16.5616 11 14.1938 13.2938 14.1938 16.1233C14.1938 17.7215 14.9492 19.1488 16.133 20.0884L16.1268 20.1048L14.5159 20.8456C13.0866 21.407 12.4674 22.6214 12.2031 23.6293C12.0698 24.1379 12.0216 24.6108 12.0063 24.9553C11.9986 25.1282 11.9992 25.2704 12.0017 25.3707C12.003 25.4209 12.0048 25.4607 12.0063 25.4887L12.0083 25.5218L12.009 25.5314L12.0092 25.5344L12.0093 25.5355C12.0093 25.5361 12.0094 25.5362 12.4281 25.5045L12.0093 25.5355L12.0207 25.677L12.1197 25.7807C13.8012 27.544 15.6631 28.3486 17.1071 28.7107C17.8281 28.8915 18.4452 28.9621 18.8849 28.9873C19.1048 28.9999 19.2809 29.0012 19.4038 28.9992C19.4408 28.9986 19.4729 28.9977 19.5 28.9968C19.5271 28.9977 19.5593 28.9986 19.5962 28.9992C19.7192 29.0012 19.8951 28.9999 20.1152 28.9873C20.5548 28.9621 21.1719 28.8915 21.893 28.7107C23.3369 28.3486 25.1988 27.544 26.8804 25.7807L26.9792 25.677L26.9906 25.5362L26.5719 25.5045C26.9906 25.5362 26.9905 25.5368 26.9906 25.5362L26.9908 25.5344L26.991 25.5314L26.9916 25.5218L26.9925 25.5095L26.9937 25.4887C26.9952 25.4607 26.997 25.4209 26.9983 25.3707C27.0009 25.2704 27.0014 25.1282 26.9937 24.9553C26.9784 24.6108 26.9302 24.1379 26.7969 23.6293C26.5327 22.6214 25.9135 21.407 24.484 20.8456L22.8731 20.1048L22.8651 20.0828L22.8595 20.0662C24.0274 19.1265 24.7709 17.709 24.7709 16.1233C24.7709 13.2938 22.4032 11 19.4824 11ZM15.0338 16.1233C15.0338 13.7432 17.0255 11.8138 19.4824 11.8138C21.9392 11.8138 23.9309 13.7432 23.9309 16.1233C23.9309 18.5034 21.9392 20.4328 19.4824 20.4328C17.0255 20.4328 15.0338 18.5034 15.0338 16.1233ZM16.8083 20.6117L16.8077 20.6125C16.8074 20.6132 16.8073 20.6133 16.4438 20.4094L16.8077 20.6125L16.7419 20.7228L14.8649 21.586L14.8532 21.5914L14.8412 21.5961C13.7562 22.018 13.2499 22.9426 13.0174 23.8296C12.902 24.2698 12.8591 24.6845 12.8456 24.9903C12.8392 25.1343 12.8394 25.2527 12.8412 25.3364C14.3652 26.8888 16.028 27.5995 17.3175 27.9228C17.9779 28.0884 18.5402 28.1523 18.9346 28.1749C19.1316 28.1862 19.2862 28.1872 19.3896 28.1855C19.4179 28.1851 19.4423 28.1844 19.4626 28.1837L19.4629 28.1801L19.4681 28.1805L19.4804 28.1812L19.4948 28.182L19.5 28.1822L19.5051 28.182L19.5318 28.1805L19.5371 28.1801L19.5373 28.1837L19.5861 28.1851L19.6103 28.1855C19.7138 28.1872 19.8684 28.1862 20.0654 28.1749C20.4598 28.1523 21.0221 28.0884 21.6825 27.9228C22.972 27.5995 24.6347 26.8888 26.1588 25.3364C26.1607 25.2527 26.1608 25.1343 26.1544 24.9903C26.1408 24.6845 26.098 24.2698 25.9827 23.8296C25.7501 22.9426 25.2438 22.018 24.1588 21.5961L24.1468 21.5914L24.1351 21.586L22.2581 20.7228L22.1926 20.6131L22.1917 20.6117L22.1904 20.6095L22.1871 20.6038L22.1774 20.5865C22.1714 20.5756 22.1639 20.5616 22.1555 20.545C21.3711 20.991 20.4576 21.2466 19.4824 21.2466C18.5185 21.2466 17.6148 20.9968 16.8366 20.5604C16.8314 20.5704 16.8267 20.5791 16.8226 20.5865L16.8129 20.6038L16.8095 20.6095L16.8083 20.6117Z" fill="black"/>
</svg>
