<svg width="147" height="23" viewBox="0 0 147 23" fill="none" xmlns="http://www.w3.org/2000/svg">
<path fill-rule="evenodd" clip-rule="evenodd" d="M57.8784 8.08782H56.5932L52.3067 12.4577V8.08782H51.1776V15.9122H52.3067V13.8896L53.7505 12.4365L56.773 15.9122H58.0926L54.5042 11.6088L57.8784 8.08782ZM60.1446 9.0592H62.8524V15.9095H63.9684V9.0592H66.6762V8.08782H60.1446V9.0592ZM33.656 14.515L30.8133 8.08782H29.5942L33.0689 15.9122H34.1849L37.649 8.08782H36.5198L33.656 14.515ZM42.2634 12.4125H46.222V11.4624H42.2634V9.0592H46.7086V8.08782H41.1342V15.9122H46.8646V14.9408H42.2608V12.4125H42.2634ZM75.9844 8.51896C75.3444 8.17299 74.6305 8 73.8398 8C73.0412 8 72.3246 8.17299 71.6846 8.51896C71.0447 8.86494 70.5423 9.34398 70.1773 9.95343C69.8124 10.5655 69.6299 11.2468 69.6299 12C69.6299 12.7532 69.8124 13.4345 70.1773 14.0439C70.5423 14.656 71.0447 15.1324 71.6846 15.481C72.3246 15.827 73.0412 16 73.8398 16C74.6305 16 75.3444 15.827 75.9844 15.481C76.6243 15.1351 77.1241 14.6587 77.4837 14.0492C77.846 13.4424 78.0258 12.7585 78.0258 12C78.0258 11.2389 77.846 10.5575 77.4837 9.94809C77.1241 9.3413 76.6243 8.86494 75.9844 8.51896ZM76.4974 13.5382C76.2303 13.996 75.8654 14.3553 75.4026 14.6161C74.9398 14.8769 74.4189 15.0073 73.8398 15.0073C73.2607 15.0073 72.7371 14.8769 72.2664 14.6161C71.7957 14.3553 71.4281 13.996 71.161 13.5382C70.894 13.0805 70.7617 12.5669 70.7617 12.0027C70.7617 11.4358 70.894 10.9248 71.161 10.4644C71.4281 10.0066 71.7957 9.64736 72.2664 9.38655C72.7371 9.12574 73.2607 8.99535 73.8398 8.99535C74.4189 8.99535 74.9398 9.12574 75.4026 9.38655C75.8654 9.64736 76.2303 10.0066 76.4974 10.4644C76.7644 10.9221 76.8967 11.4358 76.8967 12.0027C76.8967 12.5669 76.7644 13.0778 76.4974 13.5382ZM112.818 12.4125H116.776V11.4624H112.818V9.0592H117.263V8.08782H111.689V15.9122H117.419V14.9408H112.815V12.4125H112.818ZM143.008 8.08782H141.893L138.317 15.9122H139.478L140.346 13.9561H144.542L145.41 15.9122H146.594L143.008 8.08782ZM140.742 13.0619L142.445 9.22688L144.148 13.0619H140.742ZM133.531 15.9122H134.66V8.08782H133.531V15.9122ZM105.903 8.08782L102.653 13.5862L99.3579 8.08782H98.4324V15.9122H99.5166V10.2462L102.37 14.9621H102.888L105.741 10.2116L105.752 15.9122H106.836L106.826 8.08782H105.903ZM127.282 8.58016C126.635 8.25281 125.894 8.08782 125.061 8.08782H121.732V15.9122H125.061C125.897 15.9122 126.637 15.7498 127.282 15.4198C127.93 15.0925 128.43 14.6321 128.79 14.0412C129.147 13.4478 129.327 12.7691 129.327 12.0027C129.327 11.2335 129.147 10.5549 128.79 9.96141C128.433 9.36793 127.93 8.90751 127.282 8.58016ZM127.801 13.5382C127.536 13.9827 127.163 14.326 126.68 14.5708C126.196 14.8157 125.632 14.9408 124.992 14.9408H122.861V9.06186H124.992C125.632 9.06186 126.193 9.18428 126.68 9.43179C127.163 9.67929 127.539 10.0226 127.801 10.4671C128.065 10.9115 128.195 11.4225 128.195 12.0053C128.195 12.5802 128.065 13.0938 127.801 13.5382ZM88.1564 12.3566C88.4578 11.9335 88.6086 11.4172 88.6086 10.8157C88.6086 9.96673 88.315 9.29874 87.728 8.81437C87.1409 8.33001 86.3371 8.08782 85.3137 8.08782H82.233V15.9122H83.3621V13.5329H85.3137C85.4327 13.5329 85.5993 13.525 85.8108 13.5116L87.5138 15.9148H88.7434L86.8712 13.2881C87.4265 13.0912 87.8576 12.7824 88.1564 12.3566ZM85.2793 12.5802H83.3621V9.0592H85.2793C85.9933 9.0592 86.538 9.21091 86.9162 9.51165C87.2943 9.81238 87.4794 10.2462 87.4794 10.813C87.4794 11.3799 87.2917 11.8164 86.9162 12.1198C86.5407 12.4285 85.9959 12.5802 85.2793 12.5802Z" fill="white"/>
<path fill-rule="evenodd" clip-rule="evenodd" d="M17.1093 2.50923C17.4196 2.50923 17.6695 2.25964 17.6695 1.95163C17.6695 1.64362 17.417 1.39402 17.1093 1.39402C16.799 1.39402 16.5492 1.64362 16.5492 1.95163C16.5492 2.25964 16.799 2.50923 17.1093 2.50923ZM0 2.37115L10.5191 23L13.0884 17.9603L21.0356 2.37115L10.5165 10.3157L0 2.37115ZM22.4399 0C22.1296 0 21.8797 0.249593 21.8797 0.557605C21.8797 0.865617 22.1322 1.11521 22.4399 1.11521C22.7475 1.11521 23 0.865617 23 0.557605C23 0.249593 22.7475 0 22.4399 0ZM22.1585 5.29728C21.8482 5.29728 21.5983 5.54687 21.5983 5.85489C21.5983 6.1629 21.8482 6.41249 22.1585 6.41249C22.4688 6.41249 22.7186 6.1629 22.7186 5.85489C22.7186 5.54687 22.4688 5.29728 22.1585 5.29728Z" fill="white"/>
</svg>
